**********************************************************************************************
INICIO DE LA TRANSACCIÓN
Fecha Notificación: jueves, 31 de agosto de 2017 12:04
IDENTIFICADOR DE SESIÓN: SUP#4#257974775715613
LOCALIZADOR DEL SISTEMA DE RESERVA (DE HOTETEC): CREA170810NFFC
AGENCIA IDENTIFICADA: CREA
EL TIPO DE TRANSACCIÓN A REALIZAR ES: INSERTAR (creation)
SE HA CREADO LA RESERVA: 29736
FIN DE LA TRANSACCIÓN
**********************************************************************************************
