**********************************************************************************************
INICIO DE LA TRANSACCIÓN
Fecha Notificación: miércoles, 02 de agosto de 2017 16:31
IDENTIFICADOR DE SESIÓN: SUP#4#573460999004755
LOCALIZADOR DEL SISTEMA DE RESERVA (DE HOTETEC): CREA170810NFEZ
AGENCIA IDENTIFICADA: CREA
EXISTEN RESERVAS CON ESTE LOCALIZADOR EN EL SISTEMA DE RUTA
EL TIPO DE TRANSACCIÓN A REALIZAR ES: INSERTAR (creation)
SE HA(N) ENCONTRADO) RESERVA(S) EN EL SISTEMA PARA EL LOCALIZADOR, NO SE PUEDE(N) INSERTAR
FIN DE LA TRANSACCIÓN
**********************************************************************************************
